<svg xmlns="http://www.w3.org/2000/svg" width="9" height="16" viewBox="0 0 9 16">
    <path fill="#FFF" fill-rule="nonzero" d="M8.493.003L6.376 0C3.998 0 2.46 1.532 2.46 3.902v1.8H.333A.328.328 0 0 0 0 6.024V8.63c0 .179.15.324.333.324H2.46v6.577c0 .179.149.323.333.323H5.57a.328.328 0 0 0 .332-.323V8.955h2.489a.328.328 0 0 0 .333-.324V6.025a.32.32 0 0 0-.097-.229.338.338 0 0 0-.235-.095h-2.49V4.176c0-.733.18-1.105 1.163-1.105h1.426a.328.328 0 0 0 .333-.324V.327a.328.328 0 0 0-.332-.324z"/>
</svg>
