<svg xmlns="http://www.w3.org/2000/svg" width="16" height="14" viewBox="0 0 16 14">
    <path fill="#FFF" fill-rule="nonzero" d="M.283 6.713l3.686 1.383 1.427 4.612c.092.295.451.404.69.208l2.055-1.683a.61.61 0 0 1 .747-.021l3.707 2.704a.434.434 0 0 0 .68-.264L15.991.526a.435.435 0 0 0-.582-.496L.279 5.896a.438.438 0 0 0 .004.817zm4.883.647l7.206-4.46c.13-.08.262.096.151.2L6.577 8.655a1.24 1.24 0 0 0-.382.74l-.203 1.51c-.027.2-.308.22-.364.026L4.85 8.18a.73.73 0 0 1 .317-.82z"/>
</svg>
