<svg xmlns="http://www.w3.org/2000/svg" width="260" height="332" viewBox="0 0 260 332">
    <g fill="none" fill-rule="evenodd" stroke="#FFF" stroke-width=".2">
        <path d="M369.1 193.6c0 106.867-86.633 193.5-193.5 193.5S-17.9 300.467-17.9 193.6 68.733.1 175.6.1s193.5 86.633 193.5 193.5z"/>
        <path d="M370.778 196.576c0 106.15-86.052 192.202-192.202 192.202-106.15 0-192.201-86.052-192.201-192.202 0-106.15 86.05-192.201 192.2-192.201 106.15 0 192.203 86.05 192.203 192.2z"/>
        <path d="M372.454 199.552c0 105.433-85.47 190.903-190.903 190.903-105.432 0-190.902-85.47-190.902-190.903 0-105.433 85.47-190.903 190.903-190.903 105.433 0 190.903 85.47 190.903 190.903z"/>
        <path d="M374.132 202.527c0 104.716-84.889 189.605-189.604 189.605-104.716 0-189.606-84.889-189.606-189.605S79.812 12.923 184.528 12.923c104.715 0 189.604 84.888 189.604 189.604z"/>
        <path d="M375.81 205.503c0 104-84.308 188.306-188.307 188.306C83.504 393.81-.803 309.502-.803 205.503c0-103.999 84.307-188.307 188.306-188.307 103.999 0 188.307 84.308 188.307 188.307z"/>
        <path d="M377.487 208.479c0 103.282-83.726 187.008-187.008 187.008C87.198 395.487 3.47 311.76 3.47 208.479 3.47 105.197 87.198 21.47 190.479 21.47c103.282 0 187.008 83.726 187.008 187.008z"/>
        <path d="M379.164 211.455c0 102.564-83.144 185.709-185.71 185.709-102.564 0-185.709-83.145-185.709-185.709 0-102.565 83.145-185.71 185.71-185.71 102.564 0 185.71 83.145 185.71 185.71z"/>
        <path d="M380.842 214.43c0 101.849-82.564 184.412-184.41 184.412-101.849 0-184.413-82.563-184.413-184.411S94.583 30.02 196.431 30.02c101.847 0 184.411 82.563 184.411 184.41z"/>
        <path d="M382.519 217.407c0 101.13-81.982 183.113-183.112 183.113-101.131 0-183.114-81.983-183.114-183.113 0-101.131 81.983-183.113 183.114-183.113 101.13 0 183.112 81.982 183.112 183.113z"/>
        <path d="M384.197 220.382c0 100.414-81.401 181.814-181.814 181.814-100.414 0-181.815-81.4-181.815-181.814 0-100.414 81.4-181.814 181.815-181.814 100.413 0 181.814 81.4 181.814 181.814z"/>
        <path d="M385.874 223.358c0 99.696-80.82 180.516-180.517 180.516-99.696 0-180.515-80.82-180.515-180.516 0-99.697 80.82-180.517 180.515-180.517 99.697 0 180.517 80.82 180.517 180.517z"/>
        <path d="M387.551 226.334c0 98.979-80.238 179.218-179.218 179.218-98.978 0-179.217-80.24-179.217-179.218 0-98.98 80.24-179.218 179.217-179.218 98.98 0 179.218 80.239 179.218 179.218z"/>
        <path d="M389.229 229.31c0 98.262-79.657 177.918-177.92 177.918-98.262 0-177.92-79.656-177.92-177.918S113.048 51.39 211.31 51.39c98.263 0 177.92 79.658 177.92 177.92z"/>
        <path d="M390.907 232.286c0 97.544-79.076 176.62-176.621 176.62-97.545 0-176.621-79.076-176.621-176.62 0-97.546 79.076-176.621 176.62-176.621 97.546 0 176.622 79.076 176.622 176.62z"/>
        <path d="M392.583 235.261c0 96.828-78.494 175.323-175.322 175.323S41.938 332.09 41.938 235.261 120.433 59.94 217.261 59.94s175.322 78.494 175.322 175.322z"/>
        <path d="M394.261 238.237c0 96.111-77.913 174.024-174.024 174.024-96.11 0-174.024-77.913-174.024-174.024 0-96.11 77.913-174.024 174.024-174.024s174.024 77.913 174.024 174.024z"/>
        <path d="M395.939 241.213c0 95.394-77.332 172.726-172.726 172.726S50.487 336.607 50.487 241.213 127.819 68.487 223.213 68.487s172.726 77.332 172.726 172.726z"/>
        <path d="M397.617 244.189c0 94.677-76.751 171.428-171.428 171.428-94.676 0-171.427-76.751-171.427-171.428 0-94.677 76.75-171.428 171.427-171.428 94.677 0 171.428 76.75 171.428 171.428z"/>
        <path d="M399.293 247.164c0 93.96-76.169 170.13-170.129 170.13s-170.129-76.17-170.129-170.13c0-93.959 76.17-170.129 170.13-170.129s170.128 76.17 170.128 170.13z"/>
        <path d="M400.971 250.14c0 93.243-75.588 168.832-168.83 168.832-93.243 0-168.83-75.59-168.83-168.831 0-93.243 75.587-168.832 168.83-168.832 93.242 0 168.83 75.589 168.83 168.832z"/>
        <path d="M402.649 253.116c0 92.525-75.007 167.533-167.532 167.533-92.527 0-167.533-75.008-167.533-167.533 0-92.525 75.006-167.532 167.533-167.532 92.525 0 167.532 75.007 167.532 167.532z"/>
        <path d="M404.326 256.092c0 91.809-74.425 166.234-166.233 166.234-91.81 0-166.235-74.425-166.235-166.234 0-91.808 74.426-166.233 166.235-166.233 91.808 0 166.233 74.425 166.233 166.233z"/>
        <path d="M406.003 259.068c0 91.09-73.844 164.936-164.936 164.936-91.09 0-164.935-73.845-164.935-164.936 0-91.091 73.844-164.936 164.935-164.936 91.092 0 164.936 73.845 164.936 164.936z"/>
        <path d="M407.681 262.043c0 90.375-73.264 163.638-163.638 163.638-90.374 0-163.636-73.263-163.636-163.638 0-90.374 73.262-163.637 163.636-163.637s163.638 73.263 163.638 163.637z"/>
        <path d="M409.358 265.02c0 89.656-72.682 162.337-162.34 162.337-89.656 0-162.337-72.68-162.337-162.338 0-89.657 72.68-162.339 162.338-162.339 89.657 0 162.339 72.682 162.339 162.34z"/>
        <path d="M411.036 267.995c0 88.94-72.101 161.041-161.04 161.041-88.94 0-161.041-72.101-161.041-161.041s72.1-161.04 161.04-161.04 161.04 72.1 161.04 161.04z"/>
        <path d="M412.713 270.971c0 88.223-71.52 159.742-159.742 159.742-88.224 0-159.742-71.519-159.742-159.742 0-88.223 71.518-159.742 159.742-159.742 88.222 0 159.742 71.52 159.742 159.742z"/>
        <path d="M414.39 273.947c0 87.506-70.938 158.443-158.443 158.443-87.506 0-158.444-70.937-158.444-158.443 0-87.506 70.938-158.443 158.444-158.443 87.505 0 158.443 70.937 158.443 158.443z"/>
        <path d="M416.068 276.923c0 86.789-70.356 157.145-157.146 157.145-86.788 0-157.144-70.356-157.144-157.145 0-86.79 70.356-157.146 157.144-157.146 86.79 0 157.146 70.357 157.146 157.146z"/>
        <path d="M417.745 279.898c0 86.072-69.774 155.847-155.846 155.847S106.052 365.97 106.052 279.898s69.775-155.847 155.846-155.847c86.072 0 155.847 69.775 155.847 155.847z"/>
        <path d="M419.422 282.874c0 85.354-69.193 154.548-154.548 154.548-85.354 0-154.549-69.194-154.549-154.548 0-85.355 69.195-154.549 154.55-154.549 85.354 0 154.547 69.194 154.547 154.55z"/>
        <path d="M421.1 285.85c0 84.638-68.612 153.25-153.25 153.25S114.6 370.488 114.6 285.85 183.212 132.6 267.85 132.6 421.1 201.212 421.1 285.85z"/>
    </g>
</svg>
