<svg xmlns="http://www.w3.org/2000/svg" width="159" height="45" viewBox="0 0 159 45">
    <path fill="#FFF" fill-rule="evenodd" d="M6.05 7.8l.25 34.6c0 .65-.35 1-1 1H1c-.65 0-1-.35-1-1L.15 7.8c0-.65.35-1 1-1h3.9c.65 0 1 .35 1 1zM32.65 6C39.9 6 45.9 10 48.3 16.8c.25.7-.1 1.15-.85 1.15l-3.7.05c-.55 0-.9-.2-1.2-.7-2.3-3.9-5.95-6.05-10.25-6.05-6.4 0-11.4 4.65-11.4 13.45 0 8.9 5 14.2 12.2 14.2 5 0 7.9-2.5 9.65-6.2.25-.5.6-.75 1.2-.75l3.7.05c.75 0 1.1.45.85 1.1-1.85 5.35-7.05 11.1-15.95 11.1-10.55 0-17.6-7.85-17.6-19 0-11.4 7.7-19.2 17.7-19.2zM71.3 6c10 0 17.4 7.45 17.4 18.5 0 11.35-7.75 19.7-17.95 19.7-10 0-17.5-7.85-17.5-19.1C53.25 13.85 61.05 6 71.3 6zm-.45 5.25c-6.6 0-11.65 4.65-11.65 13.45 0 8.9 5.1 14.2 11.95 14.2 6.55 0 11.65-5 11.65-13.85 0-8.9-5.15-13.8-11.95-13.8zm31.32 12.15h1.71v1.02c0 1.26.87 2.01 1.95 2.01s1.92-.75 1.92-2.01v-4.98a3.592 3.592 0 0 1-3.06 1.68c-1.38 0-2.52-.93-2.52-2.58V9.3c0-2.19 1.65-3.42 3.66-3.42 2.31 0 3.63 1.11 3.63 1.11v17.43c0 2.19-1.62 3.45-3.63 3.45s-3.66-1.26-3.66-3.45V23.4zm5.58-15.51s-.75-.57-1.92-.57c-1.08 0-1.95.72-1.95 1.98v8.85c0 .99.66 1.53 1.47 1.53 1.35 0 2.4-.93 2.4-2.49v-9.3zM112.04 21V6h1.71v2.19c.66-1.47 1.65-2.31 3-2.31 1.02 0 1.83.69 1.83 1.89v3h-1.71V8.28c0-.6-.39-.96-.9-.96-1.41 0-2.22 1.59-2.22 3.45V21h-1.71zm14.01 0v-1.56c-.69 1.11-1.98 1.68-3.18 1.68-1.32 0-2.4-.9-2.4-2.49v-2.7c0-2.19 1.5-3.18 3.36-3.42l2.22-.27V9.3c0-1.26-.84-1.98-1.92-1.98s-1.95.72-1.95 1.98v1.47h-1.71V9.3c0-2.19 1.65-3.42 3.66-3.42 2.01 0 3.63 1.23 3.63 3.42V21h-1.71zm0-7.32l-1.92.24c-1.08.15-1.95.75-1.95 2.01v2.31c0 .93.63 1.44 1.38 1.44 1.23 0 2.49-.93 2.49-2.49v-3.51zm6.48 7.32l-3.12-15h1.77l2.43 13.41h.06L136.13 6h1.77l-3.12 15h-2.25zm7.26 0V6h1.71v15h-1.71zm0-18.18V0h1.71v2.82h-1.71zm9.54 16.65v1.47c-.27.06-.75.18-1.47.18-1.95 0-3.54-1.23-3.54-3.45V2.4h1.71V6h3.3v1.44h-3.3v10.23c0 1.26.87 2.01 2.01 2.01.54 0 1.02-.12 1.29-.21zm1.83 3.93h1.71v1.02c0 1.26.87 2.01 1.95 2.01s1.92-.75 1.92-2.01v-4.98a3.592 3.592 0 0 1-3.06 1.68c-1.38 0-2.52-.93-2.52-2.58V6h1.71v12.15c0 .99.66 1.53 1.47 1.53 1.35 0 2.4-.93 2.4-2.49V6h1.71v18.42c0 2.19-1.62 3.45-3.63 3.45s-3.66-1.26-3.66-3.45V23.4z"/>
</svg>
